Selection Criteria,Status
1. Will the identified resource layer impact or be impacted by transportation development?,Y/N
2. Do either IDOT or NEPA identify the layer as review-triggering based on an ecological condition or risk?,Y/N
"3. If not identified as review-triggering, does the literature support inclusion of the layer?",Y/N
4. Can the layer be aggregated into the Ecological Vulnerability Score in a meaningful way that accurately represents the resource?,Y/N
5. Is the layer part of a publicly available dataset with clear connection to socio-ecological systems?,Y/N
