Layer,Criteria,Possible Points (0-5)
Soil Development Potential,Not Limited,0
,Somewhat Limited,1
,Very Limited,2
Hydric Soil,No,0
,Yes,5
Agricultural Land,Not Prime,0
,Farmland of Statewide Importance,1
,Prime if drained and either protected from flooding or not frequently flooded during the growing season or Prime if protected from flooding or not frequently flooded during the growing season,2
,Prime if drained,3
,Prime Farmland,4
,Best Prime Farmland,5
Surface Water Buffer,None,0
,200 ft,1
,100 ft,2
,75 ft,3
,50 ft,4
,25 ft,5
Flood Hazard Area,None,0
,500-Year,4
,100-Year,5
Biologically Diverse Streams,No,0
,Yes,5
Wetlands,No,0
,Yes,5
303(d) List Streams,No,0
,Yes,5
NRHP Sites,No,0
,Yes,5
"Cemeteries,",No,0
,Yes,5
Archaeological Areas,No,0
,Yes,5
Historic Districts,No,0
,Yes,5
Natural Areas &,None,0
Parks & Rec Sites,Wooded Area,1
,Public Golf Course,2
,Public/ Private Recreational/ Public Park,3
,CRP Land/ Forest Preserve/ Conservation Easement/INAI Site,4
,Nature Preserve,5
Grant Funded Sites,None,0
,Audubon Cooperative Sanctuary Program for Golf,3
,Ameren Right Tree Right Place/ Illinois American Water Environmental Grant/ C2000 & Partners for Conservation/ OSLAD,4
,LAWCON,5
T&E Species Observations,No,0
,Yes,5
