Planning Decisions:,Planning Analyses:
"Project funding decisions (tolling, grants, etc.)",Travel demands
"Travel corridor, modal choice, or decision to implement subarea study recommendations","Local land use, growth management, and development"
Purpose and Need for proposed action,Regional development and growth
Preliminary screening of alternatives and elimination of unreasonable alternatives,Environmental resources and sensitive areas
Basic environmental setting description,Population and employment
Deciding methodologies for analysis,Potential environmental impacts (direct and indirect)
Programmatic level mitigation for potential project impacts determined by lead agency to be most effectively addressed at a national or regional scale,Mitigation needs for potential impacts determined by lead agency to be most effectively addressed at a national or regional scale
