Common Name,Type,IUCN Red List Global Ranking,2020 State Status,Year Last Observed
Loggerhead Shrike,Bird,Near Threatened,Endangered,1991
Northern Harrier,Bird,Least Concern,Endangered,1994
Upland Sandpiper,Bird,Least Concern,Endangered,2013
Yellow-crowned Night-Heron,Bird,Least Concern,Endangered,2014
Bigclaw Crayfish,Fish,Least Concern,Endangered,2018
Bigeye Chub,Fish,Least Concern,Endangered,2016
Bluebreast Darter,Fish,Least Concern,Endangered,2014
Pallid Shiner,Fish,Least Concern,Endangered,1928
Rusty Patched Bumble Bee,Insect,Critically Endangered,Endangered,2007
Indiana Bat,Mammal,Near Threatened,Endangered,2015
Sangamon Phlox,Plant,Information Not Available,Endangered,2017
Blanding's Turtle,Reptile,Endangered,Endangered,1953
Northern Riffleshell,Shellfish,Information Not Available,Endangered,2013
Salamander Mussel,Shellfish,Vulnerable,Endangered,2000
Wavy-rayed Lampmussel,Shellfish,Least Concern,Endangered,2014
Mudpuppy,Amphibian,Least Concern,Threatened,2019
Barn Owl,Bird,Least Concern,Threatened,2005
Least Bittern,Bird,Least Concern,Threatened,1993
American Eel,Fish,Endangered,Threatened,1961
Eastern Sand Darter,Fish,Least Concern,Threatened,2019
Franklin's Ground Squirrel,Mammal,Least Concern,Threatened,2010
Northern Long-eared Myotis,Mammal,Near Threatened,Threatened,2014
Little Spectaclecase,Shellfish,Information Not Available,Threatened,2016
Purple Wartyback,Shellfish,Near Threatened,Threatened,2012
Slippershell,Shellfish,Least Concern,Threatened,2015
Spike,Shellfish,Least Concern,Threatened,1988
