Bridge,Town/Village,Location
Hazen Bridge,Mahomet,405-449 County Rd. 2600 N
East Street Bridge,Mahomet,East St. (Mahomet Village Bike Trail) Over Sangamon River in Mahomet
Old Stone Arch Bridge,Champaign,475 S 2nd St.
